<svg xmlns="http://www.w3.org/2000/svg" width="32" height="32" viewBox="0 0 32 32">
  <rect width="32" height="32" fill="#30343d"/>
  <rect width="32" height="1" fill="#eeeeee" fill-opacity="0.1"/>
  <g fill="#eeeeee" opacity="0.7">
    <circle cx="16" cy="16" r="12" opacity="0"/>
    <path d="m16 10a6 6 0 0 0 -6 6 6 6 0 0 0 6 6 6 6 0 0 0 6 -6 6 6 0 0 0 -6 -6zm0 2a4 4 0 0 1 4 4 4 4 0 0 1 -4 4 4 4 0 0 1 -4 -4 4 4 0 0 1 4 -4z"/>
  </g>
</svg>
